…
Finally, you can restructure the output using something like tidyr and
dplyr, for example:

``` r
library(dplyr)
library(tidyr)

custom %>%
  select(Purpose, Year, customName, customValue) %>%
  filter(!is.na(customName)) %>%
  pivot_wider(names_from = "customName", values_from = "customValue")
```

    ## # A tibble: 37 x 5
    ##    Purpose  Year `Commercial landings` `Commercial discards`
    ##    <chr>   <int>                 <dbl>                 <dbl>
    ##  1 Advice   1985                   994                    NA
    ##  2 Advice   1986                  1318                    NA
    ##  3 Advice   1987                  1979                    NA
    ##  4 Advice   1988                  1239                    NA
    ##  5 Advice   1989                  1161                    NA
    ##  6 Advice   1990                  1064                    NA
    ##  7 Advice   1991                  1226                    NA
    ##  8 Advice   1992                  1186                    NA
    ##  9 Advice   1993                  1256                    NA
    ## 10 Advice   1994                  1370                    NA
    ## # ... with 27 more rows, and 1 more variable:
    ## #   `Recreational removals` <dbl>
